{
    "componentChunkName": "component---packages-blog-gatsby-blog-core-src-templates-collection-author-js",
    "path": "/author/steve-grant/page/2/",
    "result": {"data":{"collectionInfo":{"id":"b015b647-9d60-5956-895a-4acdf1ad3ca0","name":"Steve Grant","slug":"/author/steve-grant/","title":"Product Designer","description":"Sed commodo, est quis maximus fermentum, massa ipsum euismod neque, in varius risus tellus quis lacus. Sed ac bibendum odio.","skills":["Public Relation","Market Analyst","Designer"],"social":[{"name":"Instagram","url":"https://instagram.com/instagram"},{"name":"Twitter","url":"https://twitter.com/twitter"},{"name":"Website","url":"https://example.com"}],"thumbnail":{"__typename":"ImageSharp","ImageSharp_small":{"layout":"fixed","placeholder":{"fallback":"data:image/svg+xml,%3csvg%20xmlns='http://www.w3.org/2000/svg'%20width='48'%20height='48'%20viewBox='0%200%2048%2048'%20preserveAspectRatio='none'%3e%3cpath%20d='M15%202l-1%203-3%203c-6%207-5%2013%201%2015%204%201%207%201%207-1l-2-1c-3-1-2-5%200-4l2-1c0-2%203-1%204%201l1-1%203-2c2%200%202%200%201-1h-4c-5%201-5-1%200-3s12-3%2012%200c0%202%200%202-2%202l-2%201c1%201%200%201-1%201s-2%200-1%202h1c1-1%201-1%201%201%200%201%200%202-2%203-3%201-4%203-1%203l1%202c0%202%200%202-2%202-2-1-3%201%200%202l4%201%204%205c2%204%202%205%200%206v2l2-2c1-2%201-3-1-7s-3-6-2-7l1-2h-3c-1-2%200-3%202-2h2l-2-3-2-1h2l2%201c1%201%201%200%201-2l3-6c3-4%204-7%201-10S17-1%2015%202m6%2035l1%2010h1l5-1h5l-5%201-4%201h9v-8c0-5%200-8-1-7%200%202-1%202-5%202h-5l-1-4v6'%20fill='%23d3d3d3'%20fill-rule='evenodd'/%3e%3c/svg%3e"},"images":{"fallback":{"src":"/static/05d0ac7130e48a9a86ba018fac3dbe2d/a7a66/steve-grant.png","srcSet":"/static/05d0ac7130e48a9a86ba018fac3dbe2d/a7a66/steve-grant.png 48w,\n/static/05d0ac7130e48a9a86ba018fac3dbe2d/416a0/steve-grant.png 96w","sizes":"48px"},"sources":[{"srcSet":"/static/05d0ac7130e48a9a86ba018fac3dbe2d/a3542/steve-grant.webp 48w,\n/static/05d0ac7130e48a9a86ba018fac3dbe2d/0f66d/steve-grant.webp 96w","type":"image/webp","sizes":"48px"}]},"width":48,"height":48},"ImageSharp_regular":{"layout":"fixed","placeholder":{"fallback":"data:image/svg+xml,%3csvg%20xmlns='http://www.w3.org/2000/svg'%20width='48'%20height='48'%20viewBox='0%200%2048%2048'%20preserveAspectRatio='none'%3e%3cpath%20d='M15%202l-1%203-3%203c-6%207-5%2013%201%2015%204%201%207%201%207-1l-2-1c-3-1-2-5%200-4l2-1c0-2%203-1%204%201l1-1%203-2c2%200%202%200%201-1h-4c-5%201-5-1%200-3s12-3%2012%200c0%202%200%202-2%202l-2%201c1%201%200%201-1%201s-2%200-1%202h1c1-1%201-1%201%201%200%201%200%202-2%203-3%201-4%203-1%203l1%202c0%202%200%202-2%202-2-1-3%201%200%202l4%201%204%205c2%204%202%205%200%206v2l2-2c1-2%201-3-1-7s-3-6-2-7l1-2h-3c-1-2%200-3%202-2h2l-2-3-2-1h2l2%201c1%201%201%200%201-2l3-6c3-4%204-7%201-10S17-1%2015%202m6%2035l1%2010h1l5-1h5l-5%201-4%201h9v-8c0-5%200-8-1-7%200%202-1%202-5%202h-5l-1-4v6'%20fill='%23d3d3d3'%20fill-rule='evenodd'/%3e%3c/svg%3e"},"images":{"fallback":{"src":"/static/05d0ac7130e48a9a86ba018fac3dbe2d/46e60/steve-grant.png","srcSet":"/static/05d0ac7130e48a9a86ba018fac3dbe2d/46e60/steve-grant.png 150w,\n/static/05d0ac7130e48a9a86ba018fac3dbe2d/d612b/steve-grant.png 300w","sizes":"150px"},"sources":[{"srcSet":"/static/05d0ac7130e48a9a86ba018fac3dbe2d/ae23d/steve-grant.webp 150w,\n/static/05d0ac7130e48a9a86ba018fac3dbe2d/bd37b/steve-grant.webp 300w","type":"image/webp","sizes":"150px"}]},"width":150,"height":150}}},"posts":{"nodes":[{"id":"32e20bd5-81f0-52b1-93ee-c61edbdc8298","title":"What Is Reactive Marketing? And Which Brands Do It Well?","slug":"/what-is-reactive-marketing-and-which-brands-do-it-well/","link":null,"excerpt":"Lorem markdownum illic venturi instructa nobis Echidnae,  cum  quid magna\nfatebor. Levat placetque…","timeToRead":1,"featured":null,"thumbnailText":null,"date":"April 16, 2020","category":{"id":"d6f9cf7b-58a6-5b05-ab9d-d109cac1d47b","name":"Advertising","slug":"/category/advertising/","color":"#8a55df","icon":"/static/93c9c75517e1a6e95deaecabf3d1d050/advertising.svg"},"author":{"id":"b015b647-9d60-5956-895a-4acdf1ad3ca0","name":"Steve Grant","slug":"/author/steve-grant/","title":"Product Designer","description":"Sed commodo, est quis maximus fermentum, massa ipsum euismod neque, in varius risus tellus quis lacus. Sed ac bibendum odio.","skills":["Public Relation","Market Analyst","Designer"],"social":[{"name":"Instagram","url":"https://instagram.com/instagram"},{"name":"Twitter","url":"https://twitter.com/twitter"},{"name":"Website","url":"https://example.com"}],"thumbnail":{"__typename":"ImageSharp","ImageSharp_small":{"layout":"fixed","placeholder":{"fallback":"data:image/svg+xml,%3csvg%20xmlns='http://www.w3.org/2000/svg'%20width='48'%20height='48'%20viewBox='0%200%2048%2048'%20preserveAspectRatio='none'%3e%3cpath%20d='M15%202l-1%203-3%203c-6%207-5%2013%201%2015%204%201%207%201%207-1l-2-1c-3-1-2-5%200-4l2-1c0-2%203-1%204%201l1-1%203-2c2%200%202%200%201-1h-4c-5%201-5-1%200-3s12-3%2012%200c0%202%200%202-2%202l-2%201c1%201%200%201-1%201s-2%200-1%202h1c1-1%201-1%201%201%200%201%200%202-2%203-3%201-4%203-1%203l1%202c0%202%200%202-2%202-2-1-3%201%200%202l4%201%204%205c2%204%202%205%200%206v2l2-2c1-2%201-3-1-7s-3-6-2-7l1-2h-3c-1-2%200-3%202-2h2l-2-3-2-1h2l2%201c1%201%201%200%201-2l3-6c3-4%204-7%201-10S17-1%2015%202m6%2035l1%2010h1l5-1h5l-5%201-4%201h9v-8c0-5%200-8-1-7%200%202-1%202-5%202h-5l-1-4v6'%20fill='%23d3d3d3'%20fill-rule='evenodd'/%3e%3c/svg%3e"},"images":{"fallback":{"src":"/static/05d0ac7130e48a9a86ba018fac3dbe2d/a7a66/steve-grant.png","srcSet":"/static/05d0ac7130e48a9a86ba018fac3dbe2d/a7a66/steve-grant.png 48w,\n/static/05d0ac7130e48a9a86ba018fac3dbe2d/416a0/steve-grant.png 96w","sizes":"48px"},"sources":[{"srcSet":"/static/05d0ac7130e48a9a86ba018fac3dbe2d/a3542/steve-grant.webp 48w,\n/static/05d0ac7130e48a9a86ba018fac3dbe2d/0f66d/steve-grant.webp 96w","type":"image/webp","sizes":"48px"}]},"width":48,"height":48},"ImageSharp_regular":{"layout":"fixed","placeholder":{"fallback":"data:image/svg+xml,%3csvg%20xmlns='http://www.w3.org/2000/svg'%20width='48'%20height='48'%20viewBox='0%200%2048%2048'%20preserveAspectRatio='none'%3e%3cpath%20d='M15%202l-1%203-3%203c-6%207-5%2013%201%2015%204%201%207%201%207-1l-2-1c-3-1-2-5%200-4l2-1c0-2%203-1%204%201l1-1%203-2c2%200%202%200%201-1h-4c-5%201-5-1%200-3s12-3%2012%200c0%202%200%202-2%202l-2%201c1%201%200%201-1%201s-2%200-1%202h1c1-1%201-1%201%201%200%201%200%202-2%203-3%201-4%203-1%203l1%202c0%202%200%202-2%202-2-1-3%201%200%202l4%201%204%205c2%204%202%205%200%206v2l2-2c1-2%201-3-1-7s-3-6-2-7l1-2h-3c-1-2%200-3%202-2h2l-2-3-2-1h2l2%201c1%201%201%200%201-2l3-6c3-4%204-7%201-10S17-1%2015%202m6%2035l1%2010h1l5-1h5l-5%201-4%201h9v-8c0-5%200-8-1-7%200%202-1%202-5%202h-5l-1-4v6'%20fill='%23d3d3d3'%20fill-rule='evenodd'/%3e%3c/svg%3e"},"images":{"fallback":{"src":"/static/05d0ac7130e48a9a86ba018fac3dbe2d/46e60/steve-grant.png","srcSet":"/static/05d0ac7130e48a9a86ba018fac3dbe2d/46e60/steve-grant.png 150w,\n/static/05d0ac7130e48a9a86ba018fac3dbe2d/d612b/steve-grant.png 300w","sizes":"150px"},"sources":[{"srcSet":"/static/05d0ac7130e48a9a86ba018fac3dbe2d/ae23d/steve-grant.webp 150w,\n/static/05d0ac7130e48a9a86ba018fac3dbe2d/bd37b/steve-grant.webp 300w","type":"image/webp","sizes":"150px"}]},"width":150,"height":150}}},"thumbnail":null}],"pageInfo":{"pageCount":2,"hasPreviousPage":true,"hasNextPage":false,"currentPage":2},"totalCount":7}},"pageContext":{"slug":"/author/steve-grant/","limit":6,"skip":6,"collectionType":"author","paginatePostsPage":true,"basePath":"/","services":{"algolia":false,"mailchimp":false,"disqus":false,"graphComment":false,"facebookComment":false},"siteUrl":null,"mobileMenu":{"title":"Topics","items":[{"name":"Advertising","slug":"/category/advertising/"},{"name":"Case Studies","slug":"/category/case-studies/"}]},"darkMode":true,"includeExcerpt":true,"includeTimeToRead":true,"includeTableOfContents":true,"imageQuality":75}},
    "staticQueryHashes": ["1992822086","3117598128"]}