{
    "componentChunkName": "component---packages-blog-gatsby-blog-core-src-templates-collection-author-js",
    "path": "/author/steve-grant/",
    "result": {"data":{"collectionInfo":{"id":"b015b647-9d60-5956-895a-4acdf1ad3ca0","name":"Steve Grant","slug":"/author/steve-grant/","title":"Product Designer","description":"Sed commodo, est quis maximus fermentum, massa ipsum euismod neque, in varius risus tellus quis lacus. Sed ac bibendum odio.","skills":["Public Relation","Market Analyst","Designer"],"social":[{"name":"Instagram","url":"https://instagram.com/instagram"},{"name":"Twitter","url":"https://twitter.com/twitter"},{"name":"Website","url":"https://example.com"}],"thumbnail":{"__typename":"ImageSharp","ImageSharp_small":{"layout":"fixed","placeholder":{"fallback":"data:image/svg+xml,%3csvg%20xmlns='http://www.w3.org/2000/svg'%20width='48'%20height='48'%20viewBox='0%200%2048%2048'%20preserveAspectRatio='none'%3e%3cpath%20d='M15%202l-1%203-3%203c-6%207-5%2013%201%2015%204%201%207%201%207-1l-2-1c-3-1-2-5%200-4l2-1c0-2%203-1%204%201l1-1%203-2c2%200%202%200%201-1h-4c-5%201-5-1%200-3s12-3%2012%200c0%202%200%202-2%202l-2%201c1%201%200%201-1%201s-2%200-1%202h1c1-1%201-1%201%201%200%201%200%202-2%203-3%201-4%203-1%203l1%202c0%202%200%202-2%202-2-1-3%201%200%202l4%201%204%205c2%204%202%205%200%206v2l2-2c1-2%201-3-1-7s-3-6-2-7l1-2h-3c-1-2%200-3%202-2h2l-2-3-2-1h2l2%201c1%201%201%200%201-2l3-6c3-4%204-7%201-10S17-1%2015%202m6%2035l1%2010h1l5-1h5l-5%201-4%201h9v-8c0-5%200-8-1-7%200%202-1%202-5%202h-5l-1-4v6'%20fill='%23d3d3d3'%20fill-rule='evenodd'/%3e%3c/svg%3e"},"images":{"fallback":{"src":"/static/05d0ac7130e48a9a86ba018fac3dbe2d/a7a66/steve-grant.png","srcSet":"/static/05d0ac7130e48a9a86ba018fac3dbe2d/a7a66/steve-grant.png 48w,\n/static/05d0ac7130e48a9a86ba018fac3dbe2d/416a0/steve-grant.png 96w","sizes":"48px"},"sources":[{"srcSet":"/static/05d0ac7130e48a9a86ba018fac3dbe2d/a3542/steve-grant.webp 48w,\n/static/05d0ac7130e48a9a86ba018fac3dbe2d/0f66d/steve-grant.webp 96w","type":"image/webp","sizes":"48px"}]},"width":48,"height":48},"ImageSharp_regular":{"layout":"fixed","placeholder":{"fallback":"data:image/svg+xml,%3csvg%20xmlns='http://www.w3.org/2000/svg'%20width='48'%20height='48'%20viewBox='0%200%2048%2048'%20preserveAspectRatio='none'%3e%3cpath%20d='M15%202l-1%203-3%203c-6%207-5%2013%201%2015%204%201%207%201%207-1l-2-1c-3-1-2-5%200-4l2-1c0-2%203-1%204%201l1-1%203-2c2%200%202%200%201-1h-4c-5%201-5-1%200-3s12-3%2012%200c0%202%200%202-2%202l-2%201c1%201%200%201-1%201s-2%200-1%202h1c1-1%201-1%201%201%200%201%200%202-2%203-3%201-4%203-1%203l1%202c0%202%200%202-2%202-2-1-3%201%200%202l4%201%204%205c2%204%202%205%200%206v2l2-2c1-2%201-3-1-7s-3-6-2-7l1-2h-3c-1-2%200-3%202-2h2l-2-3-2-1h2l2%201c1%201%201%200%201-2l3-6c3-4%204-7%201-10S17-1%2015%202m6%2035l1%2010h1l5-1h5l-5%201-4%201h9v-8c0-5%200-8-1-7%200%202-1%202-5%202h-5l-1-4v6'%20fill='%23d3d3d3'%20fill-rule='evenodd'/%3e%3c/svg%3e"},"images":{"fallback":{"src":"/static/05d0ac7130e48a9a86ba018fac3dbe2d/46e60/steve-grant.png","srcSet":"/static/05d0ac7130e48a9a86ba018fac3dbe2d/46e60/steve-grant.png 150w,\n/static/05d0ac7130e48a9a86ba018fac3dbe2d/d612b/steve-grant.png 300w","sizes":"150px"},"sources":[{"srcSet":"/static/05d0ac7130e48a9a86ba018fac3dbe2d/ae23d/steve-grant.webp 150w,\n/static/05d0ac7130e48a9a86ba018fac3dbe2d/bd37b/steve-grant.webp 300w","type":"image/webp","sizes":"150px"}]},"width":150,"height":150}}},"posts":{"nodes":[{"id":"daa99eeb-21a8-50df-839d-099a32358bd6","title":"SASS Syntactically Awesome Style Sheets","slug":"/sass-syntactically-awesome-style-sheets/","link":null,"excerpt":"With the evolutionary growth in web designing technology frontend development become much \nmore…","timeToRead":2,"featured":null,"thumbnailText":null,"date":"November 02, 2021","category":{"id":"9927354f-ca98-5d26-8791-2dd48d396437","name":"Case Studies","slug":"/category/case-studies/","color":"#8a55df","icon":"/static/1de85bbd781531b61bf5a25b83d72d32/case-studies.svg"},"author":{"id":"b015b647-9d60-5956-895a-4acdf1ad3ca0","name":"Steve Grant","slug":"/author/steve-grant/","title":"Product Designer","description":"Sed commodo, est quis maximus fermentum, massa ipsum euismod neque, in varius risus tellus quis lacus. Sed ac bibendum odio.","skills":["Public Relation","Market Analyst","Designer"],"social":[{"name":"Instagram","url":"https://instagram.com/instagram"},{"name":"Twitter","url":"https://twitter.com/twitter"},{"name":"Website","url":"https://example.com"}],"thumbnail":{"__typename":"ImageSharp","ImageSharp_small":{"layout":"fixed","placeholder":{"fallback":"data:image/svg+xml,%3csvg%20xmlns='http://www.w3.org/2000/svg'%20width='48'%20height='48'%20viewBox='0%200%2048%2048'%20preserveAspectRatio='none'%3e%3cpath%20d='M15%202l-1%203-3%203c-6%207-5%2013%201%2015%204%201%207%201%207-1l-2-1c-3-1-2-5%200-4l2-1c0-2%203-1%204%201l1-1%203-2c2%200%202%200%201-1h-4c-5%201-5-1%200-3s12-3%2012%200c0%202%200%202-2%202l-2%201c1%201%200%201-1%201s-2%200-1%202h1c1-1%201-1%201%201%200%201%200%202-2%203-3%201-4%203-1%203l1%202c0%202%200%202-2%202-2-1-3%201%200%202l4%201%204%205c2%204%202%205%200%206v2l2-2c1-2%201-3-1-7s-3-6-2-7l1-2h-3c-1-2%200-3%202-2h2l-2-3-2-1h2l2%201c1%201%201%200%201-2l3-6c3-4%204-7%201-10S17-1%2015%202m6%2035l1%2010h1l5-1h5l-5%201-4%201h9v-8c0-5%200-8-1-7%200%202-1%202-5%202h-5l-1-4v6'%20fill='%23d3d3d3'%20fill-rule='evenodd'/%3e%3c/svg%3e"},"images":{"fallback":{"src":"/static/05d0ac7130e48a9a86ba018fac3dbe2d/a7a66/steve-grant.png","srcSet":"/static/05d0ac7130e48a9a86ba018fac3dbe2d/a7a66/steve-grant.png 48w,\n/static/05d0ac7130e48a9a86ba018fac3dbe2d/416a0/steve-grant.png 96w","sizes":"48px"},"sources":[{"srcSet":"/static/05d0ac7130e48a9a86ba018fac3dbe2d/a3542/steve-grant.webp 48w,\n/static/05d0ac7130e48a9a86ba018fac3dbe2d/0f66d/steve-grant.webp 96w","type":"image/webp","sizes":"48px"}]},"width":48,"height":48},"ImageSharp_regular":{"layout":"fixed","placeholder":{"fallback":"data:image/svg+xml,%3csvg%20xmlns='http://www.w3.org/2000/svg'%20width='48'%20height='48'%20viewBox='0%200%2048%2048'%20preserveAspectRatio='none'%3e%3cpath%20d='M15%202l-1%203-3%203c-6%207-5%2013%201%2015%204%201%207%201%207-1l-2-1c-3-1-2-5%200-4l2-1c0-2%203-1%204%201l1-1%203-2c2%200%202%200%201-1h-4c-5%201-5-1%200-3s12-3%2012%200c0%202%200%202-2%202l-2%201c1%201%200%201-1%201s-2%200-1%202h1c1-1%201-1%201%201%200%201%200%202-2%203-3%201-4%203-1%203l1%202c0%202%200%202-2%202-2-1-3%201%200%202l4%201%204%205c2%204%202%205%200%206v2l2-2c1-2%201-3-1-7s-3-6-2-7l1-2h-3c-1-2%200-3%202-2h2l-2-3-2-1h2l2%201c1%201%201%200%201-2l3-6c3-4%204-7%201-10S17-1%2015%202m6%2035l1%2010h1l5-1h5l-5%201-4%201h9v-8c0-5%200-8-1-7%200%202-1%202-5%202h-5l-1-4v6'%20fill='%23d3d3d3'%20fill-rule='evenodd'/%3e%3c/svg%3e"},"images":{"fallback":{"src":"/static/05d0ac7130e48a9a86ba018fac3dbe2d/46e60/steve-grant.png","srcSet":"/static/05d0ac7130e48a9a86ba018fac3dbe2d/46e60/steve-grant.png 150w,\n/static/05d0ac7130e48a9a86ba018fac3dbe2d/d612b/steve-grant.png 300w","sizes":"150px"},"sources":[{"srcSet":"/static/05d0ac7130e48a9a86ba018fac3dbe2d/ae23d/steve-grant.webp 150w,\n/static/05d0ac7130e48a9a86ba018fac3dbe2d/bd37b/steve-grant.webp 300w","type":"image/webp","sizes":"150px"}]},"width":150,"height":150}}},"thumbnail":null},{"id":"8acdda50-d0dc-5ab0-af26-632594b0e178","title":"Broadcaster Saves Hours of Admin with Innovative Digital Audio Solution","slug":"/broadcaster-saves-hours-of-admin-with-innovative-digital-audio-solution/","link":null,"excerpt":"Lorem markdownum illic venturi instructa nobis Echidnae,  cum  quid magna\nfatebor. Levat placetque…","timeToRead":1,"featured":null,"thumbnailText":null,"date":"May 08, 2020","category":{"id":"9927354f-ca98-5d26-8791-2dd48d396437","name":"Case Studies","slug":"/category/case-studies/","color":"#8a55df","icon":"/static/1de85bbd781531b61bf5a25b83d72d32/case-studies.svg"},"author":{"id":"b015b647-9d60-5956-895a-4acdf1ad3ca0","name":"Steve Grant","slug":"/author/steve-grant/","title":"Product Designer","description":"Sed commodo, est quis maximus fermentum, massa ipsum euismod neque, in varius risus tellus quis lacus. Sed ac bibendum odio.","skills":["Public Relation","Market Analyst","Designer"],"social":[{"name":"Instagram","url":"https://instagram.com/instagram"},{"name":"Twitter","url":"https://twitter.com/twitter"},{"name":"Website","url":"https://example.com"}],"thumbnail":{"__typename":"ImageSharp","ImageSharp_small":{"layout":"fixed","placeholder":{"fallback":"data:image/svg+xml,%3csvg%20xmlns='http://www.w3.org/2000/svg'%20width='48'%20height='48'%20viewBox='0%200%2048%2048'%20preserveAspectRatio='none'%3e%3cpath%20d='M15%202l-1%203-3%203c-6%207-5%2013%201%2015%204%201%207%201%207-1l-2-1c-3-1-2-5%200-4l2-1c0-2%203-1%204%201l1-1%203-2c2%200%202%200%201-1h-4c-5%201-5-1%200-3s12-3%2012%200c0%202%200%202-2%202l-2%201c1%201%200%201-1%201s-2%200-1%202h1c1-1%201-1%201%201%200%201%200%202-2%203-3%201-4%203-1%203l1%202c0%202%200%202-2%202-2-1-3%201%200%202l4%201%204%205c2%204%202%205%200%206v2l2-2c1-2%201-3-1-7s-3-6-2-7l1-2h-3c-1-2%200-3%202-2h2l-2-3-2-1h2l2%201c1%201%201%200%201-2l3-6c3-4%204-7%201-10S17-1%2015%202m6%2035l1%2010h1l5-1h5l-5%201-4%201h9v-8c0-5%200-8-1-7%200%202-1%202-5%202h-5l-1-4v6'%20fill='%23d3d3d3'%20fill-rule='evenodd'/%3e%3c/svg%3e"},"images":{"fallback":{"src":"/static/05d0ac7130e48a9a86ba018fac3dbe2d/a7a66/steve-grant.png","srcSet":"/static/05d0ac7130e48a9a86ba018fac3dbe2d/a7a66/steve-grant.png 48w,\n/static/05d0ac7130e48a9a86ba018fac3dbe2d/416a0/steve-grant.png 96w","sizes":"48px"},"sources":[{"srcSet":"/static/05d0ac7130e48a9a86ba018fac3dbe2d/a3542/steve-grant.webp 48w,\n/static/05d0ac7130e48a9a86ba018fac3dbe2d/0f66d/steve-grant.webp 96w","type":"image/webp","sizes":"48px"}]},"width":48,"height":48},"ImageSharp_regular":{"layout":"fixed","placeholder":{"fallback":"data:image/svg+xml,%3csvg%20xmlns='http://www.w3.org/2000/svg'%20width='48'%20height='48'%20viewBox='0%200%2048%2048'%20preserveAspectRatio='none'%3e%3cpath%20d='M15%202l-1%203-3%203c-6%207-5%2013%201%2015%204%201%207%201%207-1l-2-1c-3-1-2-5%200-4l2-1c0-2%203-1%204%201l1-1%203-2c2%200%202%200%201-1h-4c-5%201-5-1%200-3s12-3%2012%200c0%202%200%202-2%202l-2%201c1%201%200%201-1%201s-2%200-1%202h1c1-1%201-1%201%201%200%201%200%202-2%203-3%201-4%203-1%203l1%202c0%202%200%202-2%202-2-1-3%201%200%202l4%201%204%205c2%204%202%205%200%206v2l2-2c1-2%201-3-1-7s-3-6-2-7l1-2h-3c-1-2%200-3%202-2h2l-2-3-2-1h2l2%201c1%201%201%200%201-2l3-6c3-4%204-7%201-10S17-1%2015%202m6%2035l1%2010h1l5-1h5l-5%201-4%201h9v-8c0-5%200-8-1-7%200%202-1%202-5%202h-5l-1-4v6'%20fill='%23d3d3d3'%20fill-rule='evenodd'/%3e%3c/svg%3e"},"images":{"fallback":{"src":"/static/05d0ac7130e48a9a86ba018fac3dbe2d/46e60/steve-grant.png","srcSet":"/static/05d0ac7130e48a9a86ba018fac3dbe2d/46e60/steve-grant.png 150w,\n/static/05d0ac7130e48a9a86ba018fac3dbe2d/d612b/steve-grant.png 300w","sizes":"150px"},"sources":[{"srcSet":"/static/05d0ac7130e48a9a86ba018fac3dbe2d/ae23d/steve-grant.webp 150w,\n/static/05d0ac7130e48a9a86ba018fac3dbe2d/bd37b/steve-grant.webp 300w","type":"image/webp","sizes":"150px"}]},"width":150,"height":150}}},"thumbnail":null},{"id":"515c0679-0faf-58ea-9c38-5904d3a29f5a","title":"A Marketer’s Guide to Price Comparison Websites","slug":"/a-marketers-guide-to-price-comparison-websites/","link":null,"excerpt":"Lorem markdownum suarum successibus Auram illud. Aqua exegit silvae exiguam\ntempli, cui linquit…","timeToRead":1,"featured":null,"thumbnailText":null,"date":"May 07, 2020","category":{"id":"d6f9cf7b-58a6-5b05-ab9d-d109cac1d47b","name":"Advertising","slug":"/category/advertising/","color":"#8a55df","icon":"/static/93c9c75517e1a6e95deaecabf3d1d050/advertising.svg"},"author":{"id":"b015b647-9d60-5956-895a-4acdf1ad3ca0","name":"Steve Grant","slug":"/author/steve-grant/","title":"Product Designer","description":"Sed commodo, est quis maximus fermentum, massa ipsum euismod neque, in varius risus tellus quis lacus. Sed ac bibendum odio.","skills":["Public Relation","Market Analyst","Designer"],"social":[{"name":"Instagram","url":"https://instagram.com/instagram"},{"name":"Twitter","url":"https://twitter.com/twitter"},{"name":"Website","url":"https://example.com"}],"thumbnail":{"__typename":"ImageSharp","ImageSharp_small":{"layout":"fixed","placeholder":{"fallback":"data:image/svg+xml,%3csvg%20xmlns='http://www.w3.org/2000/svg'%20width='48'%20height='48'%20viewBox='0%200%2048%2048'%20preserveAspectRatio='none'%3e%3cpath%20d='M15%202l-1%203-3%203c-6%207-5%2013%201%2015%204%201%207%201%207-1l-2-1c-3-1-2-5%200-4l2-1c0-2%203-1%204%201l1-1%203-2c2%200%202%200%201-1h-4c-5%201-5-1%200-3s12-3%2012%200c0%202%200%202-2%202l-2%201c1%201%200%201-1%201s-2%200-1%202h1c1-1%201-1%201%201%200%201%200%202-2%203-3%201-4%203-1%203l1%202c0%202%200%202-2%202-2-1-3%201%200%202l4%201%204%205c2%204%202%205%200%206v2l2-2c1-2%201-3-1-7s-3-6-2-7l1-2h-3c-1-2%200-3%202-2h2l-2-3-2-1h2l2%201c1%201%201%200%201-2l3-6c3-4%204-7%201-10S17-1%2015%202m6%2035l1%2010h1l5-1h5l-5%201-4%201h9v-8c0-5%200-8-1-7%200%202-1%202-5%202h-5l-1-4v6'%20fill='%23d3d3d3'%20fill-rule='evenodd'/%3e%3c/svg%3e"},"images":{"fallback":{"src":"/static/05d0ac7130e48a9a86ba018fac3dbe2d/a7a66/steve-grant.png","srcSet":"/static/05d0ac7130e48a9a86ba018fac3dbe2d/a7a66/steve-grant.png 48w,\n/static/05d0ac7130e48a9a86ba018fac3dbe2d/416a0/steve-grant.png 96w","sizes":"48px"},"sources":[{"srcSet":"/static/05d0ac7130e48a9a86ba018fac3dbe2d/a3542/steve-grant.webp 48w,\n/static/05d0ac7130e48a9a86ba018fac3dbe2d/0f66d/steve-grant.webp 96w","type":"image/webp","sizes":"48px"}]},"width":48,"height":48},"ImageSharp_regular":{"layout":"fixed","placeholder":{"fallback":"data:image/svg+xml,%3csvg%20xmlns='http://www.w3.org/2000/svg'%20width='48'%20height='48'%20viewBox='0%200%2048%2048'%20preserveAspectRatio='none'%3e%3cpath%20d='M15%202l-1%203-3%203c-6%207-5%2013%201%2015%204%201%207%201%207-1l-2-1c-3-1-2-5%200-4l2-1c0-2%203-1%204%201l1-1%203-2c2%200%202%200%201-1h-4c-5%201-5-1%200-3s12-3%2012%200c0%202%200%202-2%202l-2%201c1%201%200%201-1%201s-2%200-1%202h1c1-1%201-1%201%201%200%201%200%202-2%203-3%201-4%203-1%203l1%202c0%202%200%202-2%202-2-1-3%201%200%202l4%201%204%205c2%204%202%205%200%206v2l2-2c1-2%201-3-1-7s-3-6-2-7l1-2h-3c-1-2%200-3%202-2h2l-2-3-2-1h2l2%201c1%201%201%200%201-2l3-6c3-4%204-7%201-10S17-1%2015%202m6%2035l1%2010h1l5-1h5l-5%201-4%201h9v-8c0-5%200-8-1-7%200%202-1%202-5%202h-5l-1-4v6'%20fill='%23d3d3d3'%20fill-rule='evenodd'/%3e%3c/svg%3e"},"images":{"fallback":{"src":"/static/05d0ac7130e48a9a86ba018fac3dbe2d/46e60/steve-grant.png","srcSet":"/static/05d0ac7130e48a9a86ba018fac3dbe2d/46e60/steve-grant.png 150w,\n/static/05d0ac7130e48a9a86ba018fac3dbe2d/d612b/steve-grant.png 300w","sizes":"150px"},"sources":[{"srcSet":"/static/05d0ac7130e48a9a86ba018fac3dbe2d/ae23d/steve-grant.webp 150w,\n/static/05d0ac7130e48a9a86ba018fac3dbe2d/bd37b/steve-grant.webp 300w","type":"image/webp","sizes":"150px"}]},"width":150,"height":150}}},"thumbnail":null},{"id":"467601e0-0371-5a82-8e1a-f7a607b3b5c4","title":"The Consultancy Vs. Agency Debate It’s All About Effectiveness","slug":"/the-consultancy-vs.-agency-debate-its-all-about-effectiveness/","link":null,"excerpt":"Lorem markdownum illic venturi instructa nobis Echidnae,  cum  quid magna\nfatebor. Levat placetque…","timeToRead":1,"featured":null,"thumbnailText":null,"date":"April 23, 2020","category":{"id":"d6f9cf7b-58a6-5b05-ab9d-d109cac1d47b","name":"Advertising","slug":"/category/advertising/","color":"#8a55df","icon":"/static/93c9c75517e1a6e95deaecabf3d1d050/advertising.svg"},"author":{"id":"b015b647-9d60-5956-895a-4acdf1ad3ca0","name":"Steve Grant","slug":"/author/steve-grant/","title":"Product Designer","description":"Sed commodo, est quis maximus fermentum, massa ipsum euismod neque, in varius risus tellus quis lacus. Sed ac bibendum odio.","skills":["Public Relation","Market Analyst","Designer"],"social":[{"name":"Instagram","url":"https://instagram.com/instagram"},{"name":"Twitter","url":"https://twitter.com/twitter"},{"name":"Website","url":"https://example.com"}],"thumbnail":{"__typename":"ImageSharp","ImageSharp_small":{"layout":"fixed","placeholder":{"fallback":"data:image/svg+xml,%3csvg%20xmlns='http://www.w3.org/2000/svg'%20width='48'%20height='48'%20viewBox='0%200%2048%2048'%20preserveAspectRatio='none'%3e%3cpath%20d='M15%202l-1%203-3%203c-6%207-5%2013%201%2015%204%201%207%201%207-1l-2-1c-3-1-2-5%200-4l2-1c0-2%203-1%204%201l1-1%203-2c2%200%202%200%201-1h-4c-5%201-5-1%200-3s12-3%2012%200c0%202%200%202-2%202l-2%201c1%201%200%201-1%201s-2%200-1%202h1c1-1%201-1%201%201%200%201%200%202-2%203-3%201-4%203-1%203l1%202c0%202%200%202-2%202-2-1-3%201%200%202l4%201%204%205c2%204%202%205%200%206v2l2-2c1-2%201-3-1-7s-3-6-2-7l1-2h-3c-1-2%200-3%202-2h2l-2-3-2-1h2l2%201c1%201%201%200%201-2l3-6c3-4%204-7%201-10S17-1%2015%202m6%2035l1%2010h1l5-1h5l-5%201-4%201h9v-8c0-5%200-8-1-7%200%202-1%202-5%202h-5l-1-4v6'%20fill='%23d3d3d3'%20fill-rule='evenodd'/%3e%3c/svg%3e"},"images":{"fallback":{"src":"/static/05d0ac7130e48a9a86ba018fac3dbe2d/a7a66/steve-grant.png","srcSet":"/static/05d0ac7130e48a9a86ba018fac3dbe2d/a7a66/steve-grant.png 48w,\n/static/05d0ac7130e48a9a86ba018fac3dbe2d/416a0/steve-grant.png 96w","sizes":"48px"},"sources":[{"srcSet":"/static/05d0ac7130e48a9a86ba018fac3dbe2d/a3542/steve-grant.webp 48w,\n/static/05d0ac7130e48a9a86ba018fac3dbe2d/0f66d/steve-grant.webp 96w","type":"image/webp","sizes":"48px"}]},"width":48,"height":48},"ImageSharp_regular":{"layout":"fixed","placeholder":{"fallback":"data:image/svg+xml,%3csvg%20xmlns='http://www.w3.org/2000/svg'%20width='48'%20height='48'%20viewBox='0%200%2048%2048'%20preserveAspectRatio='none'%3e%3cpath%20d='M15%202l-1%203-3%203c-6%207-5%2013%201%2015%204%201%207%201%207-1l-2-1c-3-1-2-5%200-4l2-1c0-2%203-1%204%201l1-1%203-2c2%200%202%200%201-1h-4c-5%201-5-1%200-3s12-3%2012%200c0%202%200%202-2%202l-2%201c1%201%200%201-1%201s-2%200-1%202h1c1-1%201-1%201%201%200%201%200%202-2%203-3%201-4%203-1%203l1%202c0%202%200%202-2%202-2-1-3%201%200%202l4%201%204%205c2%204%202%205%200%206v2l2-2c1-2%201-3-1-7s-3-6-2-7l1-2h-3c-1-2%200-3%202-2h2l-2-3-2-1h2l2%201c1%201%201%200%201-2l3-6c3-4%204-7%201-10S17-1%2015%202m6%2035l1%2010h1l5-1h5l-5%201-4%201h9v-8c0-5%200-8-1-7%200%202-1%202-5%202h-5l-1-4v6'%20fill='%23d3d3d3'%20fill-rule='evenodd'/%3e%3c/svg%3e"},"images":{"fallback":{"src":"/static/05d0ac7130e48a9a86ba018fac3dbe2d/46e60/steve-grant.png","srcSet":"/static/05d0ac7130e48a9a86ba018fac3dbe2d/46e60/steve-grant.png 150w,\n/static/05d0ac7130e48a9a86ba018fac3dbe2d/d612b/steve-grant.png 300w","sizes":"150px"},"sources":[{"srcSet":"/static/05d0ac7130e48a9a86ba018fac3dbe2d/ae23d/steve-grant.webp 150w,\n/static/05d0ac7130e48a9a86ba018fac3dbe2d/bd37b/steve-grant.webp 300w","type":"image/webp","sizes":"150px"}]},"width":150,"height":150}}},"thumbnail":null},{"id":"f8b04a13-61eb-5f49-952a-756ba1261fc5","title":"The Power Of Native Advertising For Travel Brands","slug":"/the-power-of-native-advertising-for-travel-brands/","link":null,"excerpt":"Lorem markdownum illic venturi instructa nobis Echidnae,  cum  quid magna\nfatebor. Levat placetque…","timeToRead":1,"featured":null,"thumbnailText":null,"date":"April 21, 2020","category":{"id":"d6f9cf7b-58a6-5b05-ab9d-d109cac1d47b","name":"Advertising","slug":"/category/advertising/","color":"#8a55df","icon":"/static/93c9c75517e1a6e95deaecabf3d1d050/advertising.svg"},"author":{"id":"b015b647-9d60-5956-895a-4acdf1ad3ca0","name":"Steve Grant","slug":"/author/steve-grant/","title":"Product Designer","description":"Sed commodo, est quis maximus fermentum, massa ipsum euismod neque, in varius risus tellus quis lacus. Sed ac bibendum odio.","skills":["Public Relation","Market Analyst","Designer"],"social":[{"name":"Instagram","url":"https://instagram.com/instagram"},{"name":"Twitter","url":"https://twitter.com/twitter"},{"name":"Website","url":"https://example.com"}],"thumbnail":{"__typename":"ImageSharp","ImageSharp_small":{"layout":"fixed","placeholder":{"fallback":"data:image/svg+xml,%3csvg%20xmlns='http://www.w3.org/2000/svg'%20width='48'%20height='48'%20viewBox='0%200%2048%2048'%20preserveAspectRatio='none'%3e%3cpath%20d='M15%202l-1%203-3%203c-6%207-5%2013%201%2015%204%201%207%201%207-1l-2-1c-3-1-2-5%200-4l2-1c0-2%203-1%204%201l1-1%203-2c2%200%202%200%201-1h-4c-5%201-5-1%200-3s12-3%2012%200c0%202%200%202-2%202l-2%201c1%201%200%201-1%201s-2%200-1%202h1c1-1%201-1%201%201%200%201%200%202-2%203-3%201-4%203-1%203l1%202c0%202%200%202-2%202-2-1-3%201%200%202l4%201%204%205c2%204%202%205%200%206v2l2-2c1-2%201-3-1-7s-3-6-2-7l1-2h-3c-1-2%200-3%202-2h2l-2-3-2-1h2l2%201c1%201%201%200%201-2l3-6c3-4%204-7%201-10S17-1%2015%202m6%2035l1%2010h1l5-1h5l-5%201-4%201h9v-8c0-5%200-8-1-7%200%202-1%202-5%202h-5l-1-4v6'%20fill='%23d3d3d3'%20fill-rule='evenodd'/%3e%3c/svg%3e"},"images":{"fallback":{"src":"/static/05d0ac7130e48a9a86ba018fac3dbe2d/a7a66/steve-grant.png","srcSet":"/static/05d0ac7130e48a9a86ba018fac3dbe2d/a7a66/steve-grant.png 48w,\n/static/05d0ac7130e48a9a86ba018fac3dbe2d/416a0/steve-grant.png 96w","sizes":"48px"},"sources":[{"srcSet":"/static/05d0ac7130e48a9a86ba018fac3dbe2d/a3542/steve-grant.webp 48w,\n/static/05d0ac7130e48a9a86ba018fac3dbe2d/0f66d/steve-grant.webp 96w","type":"image/webp","sizes":"48px"}]},"width":48,"height":48},"ImageSharp_regular":{"layout":"fixed","placeholder":{"fallback":"data:image/svg+xml,%3csvg%20xmlns='http://www.w3.org/2000/svg'%20width='48'%20height='48'%20viewBox='0%200%2048%2048'%20preserveAspectRatio='none'%3e%3cpath%20d='M15%202l-1%203-3%203c-6%207-5%2013%201%2015%204%201%207%201%207-1l-2-1c-3-1-2-5%200-4l2-1c0-2%203-1%204%201l1-1%203-2c2%200%202%200%201-1h-4c-5%201-5-1%200-3s12-3%2012%200c0%202%200%202-2%202l-2%201c1%201%200%201-1%201s-2%200-1%202h1c1-1%201-1%201%201%200%201%200%202-2%203-3%201-4%203-1%203l1%202c0%202%200%202-2%202-2-1-3%201%200%202l4%201%204%205c2%204%202%205%200%206v2l2-2c1-2%201-3-1-7s-3-6-2-7l1-2h-3c-1-2%200-3%202-2h2l-2-3-2-1h2l2%201c1%201%201%200%201-2l3-6c3-4%204-7%201-10S17-1%2015%202m6%2035l1%2010h1l5-1h5l-5%201-4%201h9v-8c0-5%200-8-1-7%200%202-1%202-5%202h-5l-1-4v6'%20fill='%23d3d3d3'%20fill-rule='evenodd'/%3e%3c/svg%3e"},"images":{"fallback":{"src":"/static/05d0ac7130e48a9a86ba018fac3dbe2d/46e60/steve-grant.png","srcSet":"/static/05d0ac7130e48a9a86ba018fac3dbe2d/46e60/steve-grant.png 150w,\n/static/05d0ac7130e48a9a86ba018fac3dbe2d/d612b/steve-grant.png 300w","sizes":"150px"},"sources":[{"srcSet":"/static/05d0ac7130e48a9a86ba018fac3dbe2d/ae23d/steve-grant.webp 150w,\n/static/05d0ac7130e48a9a86ba018fac3dbe2d/bd37b/steve-grant.webp 300w","type":"image/webp","sizes":"150px"}]},"width":150,"height":150}}},"thumbnail":null},{"id":"a5e148ff-6414-5061-ae38-52fe5e78ec7b","title":"University boosts alumni engagement with nostalgic playlist","slug":"/university-boosts-alumni-engagement-with-nostalgic-playlist/","link":null,"excerpt":"Lorem markdownum quisque caeli, aura niger  molitur tangam  licebit, cum quo ut\nharenae pauper, eras…","timeToRead":1,"featured":null,"thumbnailText":null,"date":"April 18, 2020","category":{"id":"9927354f-ca98-5d26-8791-2dd48d396437","name":"Case Studies","slug":"/category/case-studies/","color":"#8a55df","icon":"/static/1de85bbd781531b61bf5a25b83d72d32/case-studies.svg"},"author":{"id":"b015b647-9d60-5956-895a-4acdf1ad3ca0","name":"Steve Grant","slug":"/author/steve-grant/","title":"Product Designer","description":"Sed commodo, est quis maximus fermentum, massa ipsum euismod neque, in varius risus tellus quis lacus. Sed ac bibendum odio.","skills":["Public Relation","Market Analyst","Designer"],"social":[{"name":"Instagram","url":"https://instagram.com/instagram"},{"name":"Twitter","url":"https://twitter.com/twitter"},{"name":"Website","url":"https://example.com"}],"thumbnail":{"__typename":"ImageSharp","ImageSharp_small":{"layout":"fixed","placeholder":{"fallback":"data:image/svg+xml,%3csvg%20xmlns='http://www.w3.org/2000/svg'%20width='48'%20height='48'%20viewBox='0%200%2048%2048'%20preserveAspectRatio='none'%3e%3cpath%20d='M15%202l-1%203-3%203c-6%207-5%2013%201%2015%204%201%207%201%207-1l-2-1c-3-1-2-5%200-4l2-1c0-2%203-1%204%201l1-1%203-2c2%200%202%200%201-1h-4c-5%201-5-1%200-3s12-3%2012%200c0%202%200%202-2%202l-2%201c1%201%200%201-1%201s-2%200-1%202h1c1-1%201-1%201%201%200%201%200%202-2%203-3%201-4%203-1%203l1%202c0%202%200%202-2%202-2-1-3%201%200%202l4%201%204%205c2%204%202%205%200%206v2l2-2c1-2%201-3-1-7s-3-6-2-7l1-2h-3c-1-2%200-3%202-2h2l-2-3-2-1h2l2%201c1%201%201%200%201-2l3-6c3-4%204-7%201-10S17-1%2015%202m6%2035l1%2010h1l5-1h5l-5%201-4%201h9v-8c0-5%200-8-1-7%200%202-1%202-5%202h-5l-1-4v6'%20fill='%23d3d3d3'%20fill-rule='evenodd'/%3e%3c/svg%3e"},"images":{"fallback":{"src":"/static/05d0ac7130e48a9a86ba018fac3dbe2d/a7a66/steve-grant.png","srcSet":"/static/05d0ac7130e48a9a86ba018fac3dbe2d/a7a66/steve-grant.png 48w,\n/static/05d0ac7130e48a9a86ba018fac3dbe2d/416a0/steve-grant.png 96w","sizes":"48px"},"sources":[{"srcSet":"/static/05d0ac7130e48a9a86ba018fac3dbe2d/a3542/steve-grant.webp 48w,\n/static/05d0ac7130e48a9a86ba018fac3dbe2d/0f66d/steve-grant.webp 96w","type":"image/webp","sizes":"48px"}]},"width":48,"height":48},"ImageSharp_regular":{"layout":"fixed","placeholder":{"fallback":"data:image/svg+xml,%3csvg%20xmlns='http://www.w3.org/2000/svg'%20width='48'%20height='48'%20viewBox='0%200%2048%2048'%20preserveAspectRatio='none'%3e%3cpath%20d='M15%202l-1%203-3%203c-6%207-5%2013%201%2015%204%201%207%201%207-1l-2-1c-3-1-2-5%200-4l2-1c0-2%203-1%204%201l1-1%203-2c2%200%202%200%201-1h-4c-5%201-5-1%200-3s12-3%2012%200c0%202%200%202-2%202l-2%201c1%201%200%201-1%201s-2%200-1%202h1c1-1%201-1%201%201%200%201%200%202-2%203-3%201-4%203-1%203l1%202c0%202%200%202-2%202-2-1-3%201%200%202l4%201%204%205c2%204%202%205%200%206v2l2-2c1-2%201-3-1-7s-3-6-2-7l1-2h-3c-1-2%200-3%202-2h2l-2-3-2-1h2l2%201c1%201%201%200%201-2l3-6c3-4%204-7%201-10S17-1%2015%202m6%2035l1%2010h1l5-1h5l-5%201-4%201h9v-8c0-5%200-8-1-7%200%202-1%202-5%202h-5l-1-4v6'%20fill='%23d3d3d3'%20fill-rule='evenodd'/%3e%3c/svg%3e"},"images":{"fallback":{"src":"/static/05d0ac7130e48a9a86ba018fac3dbe2d/46e60/steve-grant.png","srcSet":"/static/05d0ac7130e48a9a86ba018fac3dbe2d/46e60/steve-grant.png 150w,\n/static/05d0ac7130e48a9a86ba018fac3dbe2d/d612b/steve-grant.png 300w","sizes":"150px"},"sources":[{"srcSet":"/static/05d0ac7130e48a9a86ba018fac3dbe2d/ae23d/steve-grant.webp 150w,\n/static/05d0ac7130e48a9a86ba018fac3dbe2d/bd37b/steve-grant.webp 300w","type":"image/webp","sizes":"150px"}]},"width":150,"height":150}}},"thumbnail":null}],"pageInfo":{"pageCount":2,"hasPreviousPage":false,"hasNextPage":true,"currentPage":1},"totalCount":7}},"pageContext":{"slug":"/author/steve-grant/","limit":6,"skip":0,"collectionType":"author","paginatePostsPage":true,"basePath":"/","services":{"algolia":false,"mailchimp":false,"disqus":false,"graphComment":false,"facebookComment":false},"siteUrl":null,"mobileMenu":{"title":"Topics","items":[{"name":"Advertising","slug":"/category/advertising/"},{"name":"Case Studies","slug":"/category/case-studies/"}]},"darkMode":true,"includeExcerpt":true,"includeTimeToRead":true,"includeTableOfContents":true,"imageQuality":75}},
    "staticQueryHashes": ["1992822086","3117598128"]}